…
There are many ways to construct a `TS` object. For real world
applications you would want to read in a CSV file or download a dataset
as a `DataFrame` and then operate on it. You can easily convert a
`DataFrame` to a `TS` object.

```julia
julia> using CSV, DataFrames

julia> filename = joinpath(dirname(pathof(TSx)),
           "..", "docs", "src", "assets", "sample_daily.csv")

julia> df = CSV.read(filename, DataFrame)
431×2 DataFrame
 Row │ date        value
     │ Date        Float64
─────┼──────────────────────
   1 │ 2007-01-01  10.1248
   2 │ 2007-01-02  10.3424
   3 │ 2007-01-03   7.83777
   4 │ 2007-01-04   9.87616
   5 │ 2007-01-05  12.4548
   6 │ 2007-01-06   8.63084
   7 │ 2007-01-07   8.67409
   8 │ 2007-01-08   9.75221
   9 │ 2007-01-09   8.76406
  10 │ 2007-01-10  10.8087
  11 │ 2007-01-11   9.74481
  12 │ 2007-01-12  11.0995
  13 │ 2007-01-13   9.54143
  14 │ 2007-01-14  11.167
  15 │ 2007-01-15  10.144
  16 │ 2007-01-16  11.1019
  17 │ 2007-01-17  10.5315
  18 │ 2007-01-18  10.0811
  19 │ 2007-01-19  12.5888
  20 │ 2007-01-20  10.2757
  ⋮  │     ⋮          ⋮
 413 │ 2008-02-17  10.8087
 414 │ 2008-02-18   9.74481
 415 │ 2008-02-19  11.0995
 416 │ 2008-02-20   9.54143
 417 │ 2008-02-21  11.167
 418 │ 2008-02-22  10.144
 419 │ 2008-02-23  11.1019
 420 │ 2008-02-24  10.5315
 421 │ 2008-02-25  10.0811
 422 │ 2008-02-26  12.5888
 423 │ 2008-02-27  10.2757
 424 │ 2008-02-28  10.6202
 425 │ 2008-02-29  10.6328
 426 │ 2008-03-01  10.5008
 427 │ 2008-03-02   7.88032
 428 │ 2008-03-03   9.95546
 429 │ 2008-03-04   8.26072
 430 │ 2008-03-05   9.04647
 431 │ 2008-03-06   8.85252
            392 rows omitted
…
