…
# use the underlying DataFrame for other operations
julia> select(ts.coredata, :Index, :value, DataFrames.nrow)
431×3 DataFrame
 Row │ Index       value     nrow
     │ Date        Float64   Int64
─────┼─────────────────────────────
   1 │ 2007-01-01  10.1248     431
   2 │ 2007-01-02  10.3424     431
   3 │ 2007-01-03   7.83777    431
   4 │ 2007-01-04   9.87616    431
   5 │ 2007-01-05  12.4548     431
   6 │ 2007-01-06   8.63084    431
   7 │ 2007-01-07   8.67409    431
   8 │ 2007-01-08   9.75221    431
   9 │ 2007-01-09   8.76406    431
  10 │ 2007-01-10  10.8087     431
  11 │ 2007-01-11   9.74481    431
  12 │ 2007-01-12  11.0995     431
  13 │ 2007-01-13   9.54143    431
  14 │ 2007-01-14  11.167      431
  ⋮  │     ⋮          ⋮        ⋮
 418 │ 2008-02-22  10.144      431
 419 │ 2008-02-23  11.1019     431
 420 │ 2008-02-24  10.5315     431
 421 │ 2008-02-25  10.0811     431
 422 │ 2008-02-26  12.5888     431
 423 │ 2008-02-27  10.2757     431
 424 │ 2008-02-28  10.6202     431
 425 │ 2008-02-29  10.6328     431
 426 │ 2008-03-01  10.5008     431
 427 │ 2008-03-02   7.88032    431
 428 │ 2008-03-03   9.95546    431
 429 │ 2008-03-04   8.26072    431
 430 │ 2008-03-05   9.04647    431
 431 │ 2008-03-06   8.85252    431
                   403 rows omitted
…
