User guide · TSx.jl
…
The basic TS constructor takes in a Vector of any type and automatically generates an index out of it (the Index column).
There are many ways to construct a TS object. For real world applications you would want to read in a CSV file or download a dataset as a DataFrame and then operate on it. You can easily convert a DataFrame to a TS object.

julia> using CSV, DataFrames

julia> filename = joinpath(dirname(pathof(TSx)),
           "..", "docs", "src", "assets", "sample_daily.csv")

julia> df = CSV.read(filename, DataFrame)
431×2 DataFrame
 Row │ date        value
     │ Date        Float64
─────┼──────────────────────
   1 │ 2007-01-01  10.1248
   2 │ 2007-01-02  10.3424
   3 │ 2007-01-03   7.83777
   4 │ 2007-01-04   9.87616
   5 │ 2007-01-05  12.4548
   6 │ 2007-01-06   8.63084
   7 │ 2007-01-07   8.67409
   8 │ 2007-01-08   9.75221
   9 │ 2007-01-09   8.76406
  ⋮  │     ⋮          ⋮
 423 │ 2008-02-27  10.2757
 424 │ 2008-02-28  10.6202
 425 │ 2008-02-29  10.6328
 426 │ 2008-03-01  10.5008
 427 │ 2008-03-02   7.88032
 428 │ 2008-03-03   9.95546
 429 │ 2008-03-04   8.26072
 430 │ 2008-03-05   9.04647
 431 │ 2008-03-06   8.85252
            413 rows omitted
…
# use the underlying DataFrame for other operations
julia> select(ts.coredata, :value, DataFrames.nrow)
431×2 DataFrame
 Row │ value     nrow
     │ Float64   Int64
─────┼─────────────────
   1 │ 10.1248     431
   2 │ 10.3424     431
   3 │  7.83777    431
   4 │  9.87616    431
   5 │ 12.4548     431
   6 │  8.63084    431
   7 │  8.67409    431
   8 │  9.75221    431
   9 │  8.76406    431
  ⋮  │    ⋮        ⋮
 423 │ 10.2757     431
 424 │ 10.6202     431
 425 │ 10.6328     431
 426 │ 10.5008     431
 427 │  7.88032    431
 428 │  9.95546    431
 429 │  8.26072    431
 430 │  9.04647    431
 431 │  8.85252    431
       413 rows omitted
…
